Project 1: Wrangling, Exploration, Visualization
…
Joining/Merging

nrow(countrypops)

## [1] 12470

nrow(pwt_sample)

## [1] 1428

countrypops %>% distinct(country_name)

## # A tibble: 215 x 1
##    country_name        
##    <chr>               
##  1 Aruba               
##  2 Afghanistan         
##  3 Angola              
##  4 Albania             
##  5 Andorra             
##  6 United Arab Emirates
##  7 Argentina           
##  8 Armenia             
##  9 American Samoa      
## 10 Antigua and Barbuda 
## #  with 205 more rows

pwt_sample %>% distinct(country)

## # A tibble: 21 x 1
##    country    
##    <chr>      
##  1 Australia  
##  2 Austria    
##  3 Belgium    
##  4 Canada     
##  5 Switzerland
##  6 Chile      
##  7 Germany    
##  8 Denmark    
##  9 Spain      
## 10 Finland    
## #  with 11 more rows

countrypops %>% rename(country = country_name) %>% select(country) %>% 
    anti_join(pwt_sample %>% select(country)) %>% distinct(country)  #countrypops has 195 unique countries

## # A tibble: 195 x 1
##    country             
##    <chr>               
##  1 Aruba               
##  2 Afghanistan         
##  3 Angola              
##  4 Albania             
##  5 Andorra             
##  6 United Arab Emirates
##  7 Argentina           
##  8 Armenia             
##  9 American Samoa      
## 10 Antigua and Barbuda 
## #  with 185 more rows
…
